…
**smoothness** The smoothness of this Berry, used in making Pokéblocks
or Poffins.

**soil\_dryness** The speed at which this Berry dries out the soil as it
grows. A higher rate means the soil dries more quickly.

Let’s look at this data set first

``` r
get_endpoints("berry",0)
```

    ## # A tibble: 64 x 9
    ##    Name   Growth_Time  Size Firmness   Max_Harvest Natural_Gift_Power Natrual_Gift_Type Soil_Dryness Smoothness
    ##    <chr>        <int> <int> <chr>            <int>              <int> <chr>                    <int>      <int>
    ##  1 cheri            3    20 soft                 5                 60 fire                        15         25
    ##  2 chesto           3    80 super-hard           5                 60 water                       15         25
    ##  3 pecha            3    40 very-soft            5                 60 electric                    15         25
    ##  4 rawst            3    32 hard                 5                 60 grass                       15         25
    ##  5 aspear           3    50 super-hard           5                 60 ice                         15         25
    ##  6 leppa            4    28 very-hard            5                 60 fighting                    15         20
    ##  7 oran             4    35 super-hard           5                 60 poison                      15         20
    ##  8 persim           4    47 hard                 5                 60 ground                      15         20
    ##  9 lum             12    34 super-hard           5                 60 flying                       8         20
    ## 10 sitrus           8    95 very-hard            5                 60 psychic                      7         20
    ## # ... with 54 more rows
…
NewPoke$Growth_Rate_Category <- v
NewPoke$Size_Category <- m
```

Now the data set look like this:

``` r
NewPoke
```

    ## # A tibble: 64 x 13
    ##    Name   Growth_Time  Size Firmness   Max_Harvest Natural_Gift_Power Natrual_Gift_Type Soil_Dryness Smoothness Growth_Rate_in_H~
    ##    <chr>        <int> <int> <chr>            <int>              <int> <chr>                    <int>      <int>             <dbl>
    ##  1 cheri            3    20 soft                 5                 60 fire                        15         25              6.67
    ##  2 chesto           3    80 super-hard           5                 60 water                       15         25             26.7 
    ##  3 pecha            3    40 very-soft            5                 60 electric                    15         25             13.3 
    ##  4 rawst            3    32 hard                 5                 60 grass                       15         25             10.7 
    ##  5 aspear           3    50 super-hard           5                 60 ice                         15         25             16.7 
    ##  6 leppa            4    28 very-hard            5                 60 fighting                    15         20              7   
    ##  7 oran             4    35 super-hard           5                 60 poison                      15         20              8.75
    ##  8 persim           4    47 hard                 5                 60 ground                      15         20             11.8 
    ##  9 lum             12    34 super-hard           5                 60 flying                       8         20              2.83
    ## 10 sitrus           8    95 very-hard            5                 60 psychic                      7         20             11.9 
    ## # ... with 54 more rows, and 3 more variables: Pokeblocks_Productivity <dbl>, Growth_Rate_Category <chr>, Size_Category <chr>
…
